p0	p1	p2	s0	s1	s2	s3	s4	s5	s6	s7	s8	s9	s10	s11	s12	s13	s14	s15	s16	s17	s18	s19	s20	s21	s22	s23	s24	s25	s26	s27	s28	s29	s30	s31	s32	s33	s34	s35	s36	s37	s38	s39	s40	s41	
			*CCC	Max	Align	SSP
ape-taba$$$p0$s0	apetaba	1	0	0	1	0
	aptaba	0	0	1	0	5
ape-ttaba$$$p0$s1	apettaba	1	0	0	1	5
	apttaba	0	1	1	0	10
ape-saba$$$p0$s2	apesaba	0	0	0	1	0
	apsaba	1	0	1	0	4
ape-tsaba$$$p0$s3	apetsaba	1	0	0	1	4
	aptsaba	0	1	1	0	9
ape-naba$$$p0$s4	apenaba	0	0	0	1	0
	apnaba	1	0	1	0	3
ape-tnaba$$$p0$s5	apetnaba	1	0	0	1	3
	aptnaba	0	1	1	0	8
ape-laba$$$p0$s6	apelaba	0	0	0	1	0
	aplaba	1	0	1	0	2
ape-tlaba$$$p0$s7	apetlaba	1	0	0	1	2
	aptlaba	0	1	1	0	7
ape-raba$$$p0$s8	aperaba	0	0	0	1	0
	apraba	1	0	1	0	1
ape-traba$$$p0$s9	apetraba	1	0	0	1	1
	aptraba	0	1	1	0	6
ape-vaba$$$p0$s10	apevaba	0	0	0	1	0
	apvaba	1	0	1	0	0
ape-tvaba$$$p0$s11	apetvaba	1	0	0	1	0
	aptvaba	0	1	1	0	5
ape-staba$$$p0$s12	apestaba	1	0	0	1	6
	apstaba	0	1	1	0	10
ape-ssaba$$$p0$s13	apessaba	1	0	0	1	5
	apssaba	0	1	1	0	9
ape-snaba$$$p0$s14	apesnaba	1	0	0	1	4
	apsnaba	0	1	1	0	8
ape-slaba$$$p0$s15	apeslaba	1	0	0	1	3
	apslaba	0	1	1	0	7
ape-sraba$$$p0$s16	apesraba	1	0	0	1	2
	apsraba	0	1	1	0	6
ape-svaba$$$p0$s17	apesvaba	1	0	0	1	1
	apsvaba	0	1	1	0	5
ape-ntaba$$$p0$s18	apentaba	1	0	0	1	7
	apntaba	0	1	1	0	10
ape-nsaba$$$p0$s19	apensaba	1	0	0	1	6
	apnsaba	0	1	1	0	9
ape-nnaba$$$p0$s20	apennaba	1	0	0	1	5
	apnnaba	0	1	1	0	8
ape-nlaba$$$p0$s21	apenlaba	1	0	0	1	4
	apnlaba	0	1	1	0	7
ape-nraba$$$p0$s22	apenraba	1	0	0	1	3
	apnraba	0	1	1	0	6
ape-nvaba$$$p0$s23	apenvaba	1	0	0	1	2
	apnvaba	0	1	1	0	5
ape-ltaba$$$p0$s24	apeltaba	1	0	0	1	8
	apltaba	0	1	1	0	10
ape-lsaba$$$p0$s25	apelsaba	1	0	0	1	7
	aplsaba	0	1	1	0	9
ape-lnaba$$$p0$s26	apelnaba	1	0	0	1	6
	aplnaba	0	1	1	0	8
ape-llaba$$$p0$s27	apellaba	1	0	0	1	5
	apllaba	0	1	1	0	7
ape-lraba$$$p0$s28	apelraba	1	0	0	1	4
	aplraba	0	1	1	0	6
ape-lvaba$$$p0$s29	apelvaba	1	0	0	1	3
	aplvaba	0	1	1	0	5
ape-rtaba$$$p0$s30	apertaba	1	0	0	1	9
	aprtaba	0	1	1	0	10
ape-rsaba$$$p0$s31	apersaba	1	0	0	1	8
	aprsaba	0	1	1	0	9
ape-rnaba$$$p0$s32	apernaba	1	0	0	1	7
	aprnaba	0	1	1	0	8
ape-rlaba$$$p0$s33	aperlaba	1	0	0	1	6
	aprlaba	0	1	1	0	7
ape-rraba$$$p0$s34	aperraba	1	0	0	1	5
	aprraba	0	1	1	0	6
ape-rvaba$$$p0$s35	apervaba	1	0	0	1	4
	aprvaba	0	1	1	0	5
ape-vtaba$$$p0$s36	apevtaba	1	0	0	1	10
	apvtaba	0	1	1	0	10
ape-vsaba$$$p0$s37	apevsaba	1	0	0	1	9
	apvsaba	0	1	1	0	9
ape-vnaba$$$p0$s38	apevnaba	1	0	0	1	8
	apvnaba	0	1	1	0	8
ape-vlaba$$$p0$s39	apevlaba	1	0	0	1	7
	apvlaba	0	1	1	0	7
ape-vraba$$$p0$s40	apevraba	1	0	0	1	6
	apvraba	0	1	1	0	6
ape-vvaba$$$p0$s41	apevvaba	1	0	0	1	5
	apvvaba	0	1	1	0	5
ate-taba$$$p1$s0	atetaba	1	0	0	1	0
	attaba	0	0	1	0	5
ate-ttaba$$$p1$s1	atettaba	1	0	0	1	5
	atttaba	0	1	1	0	10
ate-saba$$$p1$s2	atesaba	0	0	0	1	0
	atsaba	1	0	1	0	4
ate-tsaba$$$p1$s3	atetsaba	1	0	0	1	4
	attsaba	0	1	1	0	9
ate-naba$$$p1$s4	atenaba	0	0	0	1	0
	atnaba	1	0	1	0	3
ate-tnaba$$$p1$s5	atetnaba	1	0	0	1	3
	attnaba	0	1	1	0	8
ate-laba$$$p1$s6	atelaba	0	0	0	1	0
	atlaba	1	0	1	0	2
ate-tlaba$$$p1$s7	atetlaba	1	0	0	1	2
	attlaba	0	1	1	0	7
ate-raba$$$p1$s8	ateraba	0	0	0	1	0
	atraba	1	0	1	0	1
ate-traba$$$p1$s9	atetraba	1	0	0	1	1
	attraba	0	1	1	0	6
ate-vaba$$$p1$s10	atevaba	0	0	0	1	0
	atvaba	1	0	1	0	0
ate-tvaba$$$p1$s11	atetvaba	1	0	0	1	0
	attvaba	0	1	1	0	5
ate-staba$$$p1$s12	atestaba	1	0	0	1	6
	atstaba	0	1	1	0	10
ate-ssaba$$$p1$s13	atessaba	1	0	0	1	5
	atssaba	0	1	1	0	9
ate-snaba$$$p1$s14	atesnaba	1	0	0	1	4
	atsnaba	0	1	1	0	8
ate-slaba$$$p1$s15	ateslaba	1	0	0	1	3
	atslaba	0	1	1	0	7
ate-sraba$$$p1$s16	atesraba	1	0	0	1	2
	atsraba	0	1	1	0	6
ate-svaba$$$p1$s17	atesvaba	1	0	0	1	1
	atsvaba	0	1	1	0	5
ate-ntaba$$$p1$s18	atentaba	1	0	0	1	7
	atntaba	0	1	1	0	10
ate-nsaba$$$p1$s19	atensaba	1	0	0	1	6
	atnsaba	0	1	1	0	9
ate-nnaba$$$p1$s20	atennaba	1	0	0	1	5
	atnnaba	0	1	1	0	8
ate-nlaba$$$p1$s21	atenlaba	1	0	0	1	4
	atnlaba	0	1	1	0	7
ate-nraba$$$p1$s22	atenraba	1	0	0	1	3
	atnraba	0	1	1	0	6
ate-nvaba$$$p1$s23	atenvaba	1	0	0	1	2
	atnvaba	0	1	1	0	5
ate-ltaba$$$p1$s24	ateltaba	1	0	0	1	8
	atltaba	0	1	1	0	10
ate-lsaba$$$p1$s25	atelsaba	1	0	0	1	7
	atlsaba	0	1	1	0	9
ate-lnaba$$$p1$s26	atelnaba	1	0	0	1	6
	atlnaba	0	1	1	0	8
ate-llaba$$$p1$s27	atellaba	1	0	0	1	5
	atllaba	0	1	1	0	7
ate-lraba$$$p1$s28	atelraba	1	0	0	1	4
	atlraba	0	1	1	0	6
ate-lvaba$$$p1$s29	atelvaba	1	0	0	1	3
	atlvaba	0	1	1	0	5
ate-rtaba$$$p1$s30	atertaba	1	0	0	1	9
	atrtaba	0	1	1	0	10
ate-rsaba$$$p1$s31	atersaba	1	0	0	1	8
	atrsaba	0	1	1	0	9
ate-rnaba$$$p1$s32	aternaba	1	0	0	1	7
	atrnaba	0	1	1	0	8
ate-rlaba$$$p1$s33	aterlaba	1	0	0	1	6
	atrlaba	0	1	1	0	7
ate-rraba$$$p1$s34	aterraba	1	0	0	1	5
	atrraba	0	1	1	0	6
ate-rvaba$$$p1$s35	atervaba	1	0	0	1	4
	atrvaba	0	1	1	0	5
ate-vtaba$$$p1$s36	atevtaba	1	0	0	1	10
	atvtaba	0	1	1	0	10
ate-vsaba$$$p1$s37	atevsaba	1	0	0	1	9
	atvsaba	0	1	1	0	9
ate-vnaba$$$p1$s38	atevnaba	1	0	0	1	8
	atvnaba	0	1	1	0	8
ate-vlaba$$$p1$s39	atevlaba	1	0	0	1	7
	atvlaba	0	1	1	0	7
ate-vraba$$$p1$s40	atevraba	1	0	0	1	6
	atvraba	0	1	1	0	6
ate-vvaba$$$p1$s41	atevvaba	1	0	0	1	5
	atvvaba	0	1	1	0	5
ake-taba$$$p2$s0	aketaba	1	0	0	1	0
	aktaba	0	0	1	0	5
ake-ttaba$$$p2$s1	akettaba	1	0	0	1	5
	akttaba	0	1	1	0	10
ake-saba$$$p2$s2	akesaba	0	0	0	1	0
	aksaba	1	0	1	0	4
ake-tsaba$$$p2$s3	aketsaba	1	0	0	1	4
	aktsaba	0	1	1	0	9
ake-naba$$$p2$s4	akenaba	0	0	0	1	0
	aknaba	1	0	1	0	3
ake-tnaba$$$p2$s5	aketnaba	1	0	0	1	3
	aktnaba	0	1	1	0	8
ake-laba$$$p2$s6	akelaba	0	0	0	1	0
	aklaba	1	0	1	0	2
ake-tlaba$$$p2$s7	aketlaba	1	0	0	1	2
	aktlaba	0	1	1	0	7
ake-raba$$$p2$s8	akeraba	0	0	0	1	0
	akraba	1	0	1	0	1
ake-traba$$$p2$s9	aketraba	1	0	0	1	1
	aktraba	0	1	1	0	6
ake-vaba$$$p2$s10	akevaba	0	0	0	1	0
	akvaba	1	0	1	0	0
ake-tvaba$$$p2$s11	aketvaba	1	0	0	1	0
	aktvaba	0	1	1	0	5
ake-staba$$$p2$s12	akestaba	1	0	0	1	6
	akstaba	0	1	1	0	10
ake-ssaba$$$p2$s13	akessaba	1	0	0	1	5
	akssaba	0	1	1	0	9
ake-snaba$$$p2$s14	akesnaba	1	0	0	1	4
	aksnaba	0	1	1	0	8
ake-slaba$$$p2$s15	akeslaba	1	0	0	1	3
	akslaba	0	1	1	0	7
ake-sraba$$$p2$s16	akesraba	1	0	0	1	2
	aksraba	0	1	1	0	6
ake-svaba$$$p2$s17	akesvaba	1	0	0	1	1
	aksvaba	0	1	1	0	5
ake-ntaba$$$p2$s18	akentaba	1	0	0	1	7
	akntaba	0	1	1	0	10
ake-nsaba$$$p2$s19	akensaba	1	0	0	1	6
	aknsaba	0	1	1	0	9
ake-nnaba$$$p2$s20	akennaba	1	0	0	1	5
	aknnaba	0	1	1	0	8
ake-nlaba$$$p2$s21	akenlaba	1	0	0	1	4
	aknlaba	0	1	1	0	7
ake-nraba$$$p2$s22	akenraba	1	0	0	1	3
	aknraba	0	1	1	0	6
ake-nvaba$$$p2$s23	akenvaba	1	0	0	1	2
	aknvaba	0	1	1	0	5
ake-ltaba$$$p2$s24	akeltaba	1	0	0	1	8
	akltaba	0	1	1	0	10
ake-lsaba$$$p2$s25	akelsaba	1	0	0	1	7
	aklsaba	0	1	1	0	9
ake-lnaba$$$p2$s26	akelnaba	1	0	0	1	6
	aklnaba	0	1	1	0	8
ake-llaba$$$p2$s27	akellaba	1	0	0	1	5
	akllaba	0	1	1	0	7
ake-lraba$$$p2$s28	akelraba	1	0	0	1	4
	aklraba	0	1	1	0	6
ake-lvaba$$$p2$s29	akelvaba	1	0	0	1	3
	aklvaba	0	1	1	0	5
ake-rtaba$$$p2$s30	akertaba	1	0	0	1	9
	akrtaba	0	1	1	0	10
ake-rsaba$$$p2$s31	akersaba	1	0	0	1	8
	akrsaba	0	1	1	0	9
ake-rnaba$$$p2$s32	akernaba	1	0	0	1	7
	akrnaba	0	1	1	0	8
ake-rlaba$$$p2$s33	akerlaba	1	0	0	1	6
	akrlaba	0	1	1	0	7
ake-rraba$$$p2$s34	akerraba	1	0	0	1	5
	akrraba	0	1	1	0	6
ake-rvaba$$$p2$s35	akervaba	1	0	0	1	4
	akrvaba	0	1	1	0	5
ake-vtaba$$$p2$s36	akevtaba	1	0	0	1	10
	akvtaba	0	1	1	0	10
ake-vsaba$$$p2$s37	akevsaba	1	0	0	1	9
	akvsaba	0	1	1	0	9
ake-vnaba$$$p2$s38	akevnaba	1	0	0	1	8
	akvnaba	0	1	1	0	8
ake-vlaba$$$p2$s39	akevlaba	1	0	0	1	7
	akvlaba	0	1	1	0	7
ake-vraba$$$p2$s40	akevraba	1	0	0	1	6
	akvraba	0	1	1	0	6
ake-vvaba$$$p2$s41	akevvaba	1	0	0	1	5
	akvvaba	0	1	1	0	5
