p0	p1	p2	s0	s1	s2	s3	s4	s5	s6	s7	s8	s9	s10	s11	s12	s13	s14	s15	s16	s17	s18	s19	s20	s21	s22	s23	s24	s25	s26	s27	s28	s29	s30	s31	s32	s33	s34	s35	s36	s37	s38	s39	s40	s41	
			*CCC	Max	Align	SSP
ame-taba$$$p0$s0	ametaba	0	0	0	1	0
	amtaba	1	0	1	0	7
ame-ttaba$$$p0$s1	amettaba	1	0	0	1	5
	amttaba	0	1	1	0	12
ame-saba$$$p0$s2	amesaba	0	0	0	1	0
	amsaba	1	0	1	0	6
ame-tsaba$$$p0$s3	ametsaba	1	0	0	1	4
	amtsaba	0	1	1	0	11
ame-naba$$$p0$s4	amenaba	0	0	0	1	0
	amnaba	1	0	1	0	5
ame-tnaba$$$p0$s5	ametnaba	1	0	0	1	3
	amtnaba	0	1	1	0	10
ame-laba$$$p0$s6	amelaba	0	0	0	1	0
	amlaba	1	0	1	0	4
ame-tlaba$$$p0$s7	ametlaba	1	0	0	1	2
	amtlaba	0	1	1	0	9
ame-raba$$$p0$s8	ameraba	0	0	0	1	0
	amraba	1	0	1	0	3
ame-traba$$$p0$s9	ametraba	1	0	0	1	1
	amtraba	0	1	1	0	8
ame-vaba$$$p0$s10	amevaba	0	0	0	1	0
	amvaba	1	0	1	0	2
ame-tvaba$$$p0$s11	ametvaba	1	0	0	1	0
	amtvaba	0	1	1	0	7
ame-staba$$$p0$s12	amestaba	1	0	0	1	6
	amstaba	0	1	1	0	12
ame-ssaba$$$p0$s13	amessaba	1	0	0	1	5
	amssaba	0	1	1	0	11
ame-snaba$$$p0$s14	amesnaba	1	0	0	1	4
	amsnaba	0	1	1	0	10
ame-slaba$$$p0$s15	ameslaba	1	0	0	1	3
	amslaba	0	1	1	0	9
ame-sraba$$$p0$s16	amesraba	1	0	0	1	2
	amsraba	0	1	1	0	8
ame-svaba$$$p0$s17	amesvaba	1	0	0	1	1
	amsvaba	0	1	1	0	7
ame-ntaba$$$p0$s18	amentaba	1	0	0	1	7
	amntaba	0	1	1	0	12
ame-nsaba$$$p0$s19	amensaba	1	0	0	1	6
	amnsaba	0	1	1	0	11
ame-nnaba$$$p0$s20	amennaba	1	0	0	1	5
	amnnaba	0	1	1	0	10
ame-nlaba$$$p0$s21	amenlaba	1	0	0	1	4
	amnlaba	0	1	1	0	9
ame-nraba$$$p0$s22	amenraba	1	0	0	1	3
	amnraba	0	1	1	0	8
ame-nvaba$$$p0$s23	amenvaba	1	0	0	1	2
	amnvaba	0	1	1	0	7
ame-ltaba$$$p0$s24	ameltaba	1	0	0	1	8
	amltaba	0	1	1	0	12
ame-lsaba$$$p0$s25	amelsaba	1	0	0	1	7
	amlsaba	0	1	1	0	11
ame-lnaba$$$p0$s26	amelnaba	1	0	0	1	6
	amlnaba	0	1	1	0	10
ame-llaba$$$p0$s27	amellaba	1	0	0	1	5
	amllaba	0	1	1	0	9
ame-lraba$$$p0$s28	amelraba	1	0	0	1	4
	amlraba	0	1	1	0	8
ame-lvaba$$$p0$s29	amelvaba	1	0	0	1	3
	amlvaba	0	1	1	0	7
ame-rtaba$$$p0$s30	amertaba	1	0	0	1	9
	amrtaba	0	1	1	0	12
ame-rsaba$$$p0$s31	amersaba	1	0	0	1	8
	amrsaba	0	1	1	0	11
ame-rnaba$$$p0$s32	amernaba	1	0	0	1	7
	amrnaba	0	1	1	0	10
ame-rlaba$$$p0$s33	amerlaba	1	0	0	1	6
	amrlaba	0	1	1	0	9
ame-rraba$$$p0$s34	amerraba	1	0	0	1	5
	amrraba	0	1	1	0	8
ame-rvaba$$$p0$s35	amervaba	1	0	0	1	4
	amrvaba	0	1	1	0	7
ame-vtaba$$$p0$s36	amevtaba	1	0	0	1	10
	amvtaba	0	1	1	0	12
ame-vsaba$$$p0$s37	amevsaba	1	0	0	1	9
	amvsaba	0	1	1	0	11
ame-vnaba$$$p0$s38	amevnaba	1	0	0	1	8
	amvnaba	0	1	1	0	10
ame-vlaba$$$p0$s39	amevlaba	1	0	0	1	7
	amvlaba	0	1	1	0	9
ame-vraba$$$p0$s40	amevraba	1	0	0	1	6
	amvraba	0	1	1	0	8
ame-vvaba$$$p0$s41	amevvaba	1	0	0	1	5
	amvvaba	0	1	1	0	7
ane-taba$$$p1$s0	anetaba	0	0	0	1	0
	antaba	1	0	1	0	7
ane-ttaba$$$p1$s1	anettaba	1	0	0	1	5
	anttaba	0	1	1	0	12
ane-saba$$$p1$s2	anesaba	0	0	0	1	0
	ansaba	1	0	1	0	6
ane-tsaba$$$p1$s3	anetsaba	1	0	0	1	4
	antsaba	0	1	1	0	11
ane-naba$$$p1$s4	anenaba	0	0	0	1	0
	annaba	1	0	1	0	5
ane-tnaba$$$p1$s5	anetnaba	1	0	0	1	3
	antnaba	0	1	1	0	10
ane-laba$$$p1$s6	anelaba	0	0	0	1	0
	anlaba	1	0	1	0	4
ane-tlaba$$$p1$s7	anetlaba	1	0	0	1	2
	antlaba	0	1	1	0	9
ane-raba$$$p1$s8	aneraba	0	0	0	1	0
	anraba	1	0	1	0	3
ane-traba$$$p1$s9	anetraba	1	0	0	1	1
	antraba	0	1	1	0	8
ane-vaba$$$p1$s10	anevaba	0	0	0	1	0
	anvaba	1	0	1	0	2
ane-tvaba$$$p1$s11	anetvaba	1	0	0	1	0
	antvaba	0	1	1	0	7
ane-staba$$$p1$s12	anestaba	1	0	0	1	6
	anstaba	0	1	1	0	12
ane-ssaba$$$p1$s13	anessaba	1	0	0	1	5
	anssaba	0	1	1	0	11
ane-snaba$$$p1$s14	anesnaba	1	0	0	1	4
	ansnaba	0	1	1	0	10
ane-slaba$$$p1$s15	aneslaba	1	0	0	1	3
	anslaba	0	1	1	0	9
ane-sraba$$$p1$s16	anesraba	1	0	0	1	2
	ansraba	0	1	1	0	8
ane-svaba$$$p1$s17	anesvaba	1	0	0	1	1
	ansvaba	0	1	1	0	7
ane-ntaba$$$p1$s18	anentaba	1	0	0	1	7
	anntaba	0	1	1	0	12
ane-nsaba$$$p1$s19	anensaba	1	0	0	1	6
	annsaba	0	1	1	0	11
ane-nnaba$$$p1$s20	anennaba	1	0	0	1	5
	annnaba	0	1	1	0	10
ane-nlaba$$$p1$s21	anenlaba	1	0	0	1	4
	annlaba	0	1	1	0	9
ane-nraba$$$p1$s22	anenraba	1	0	0	1	3
	annraba	0	1	1	0	8
ane-nvaba$$$p1$s23	anenvaba	1	0	0	1	2
	annvaba	0	1	1	0	7
ane-ltaba$$$p1$s24	aneltaba	1	0	0	1	8
	anltaba	0	1	1	0	12
ane-lsaba$$$p1$s25	anelsaba	1	0	0	1	7
	anlsaba	0	1	1	0	11
ane-lnaba$$$p1$s26	anelnaba	1	0	0	1	6
	anlnaba	0	1	1	0	10
ane-llaba$$$p1$s27	anellaba	1	0	0	1	5
	anllaba	0	1	1	0	9
ane-lraba$$$p1$s28	anelraba	1	0	0	1	4
	anlraba	0	1	1	0	8
ane-lvaba$$$p1$s29	anelvaba	1	0	0	1	3
	anlvaba	0	1	1	0	7
ane-rtaba$$$p1$s30	anertaba	1	0	0	1	9
	anrtaba	0	1	1	0	12
ane-rsaba$$$p1$s31	anersaba	1	0	0	1	8
	anrsaba	0	1	1	0	11
ane-rnaba$$$p1$s32	anernaba	1	0	0	1	7
	anrnaba	0	1	1	0	10
ane-rlaba$$$p1$s33	anerlaba	1	0	0	1	6
	anrlaba	0	1	1	0	9
ane-rraba$$$p1$s34	anerraba	1	0	0	1	5
	anrraba	0	1	1	0	8
ane-rvaba$$$p1$s35	anervaba	1	0	0	1	4
	anrvaba	0	1	1	0	7
ane-vtaba$$$p1$s36	anevtaba	1	0	0	1	10
	anvtaba	0	1	1	0	12
ane-vsaba$$$p1$s37	anevsaba	1	0	0	1	9
	anvsaba	0	1	1	0	11
ane-vnaba$$$p1$s38	anevnaba	1	0	0	1	8
	anvnaba	0	1	1	0	10
ane-vlaba$$$p1$s39	anevlaba	1	0	0	1	7
	anvlaba	0	1	1	0	9
ane-vraba$$$p1$s40	anevraba	1	0	0	1	6
	anvraba	0	1	1	0	8
ane-vvaba$$$p1$s41	anevvaba	1	0	0	1	5
	anvvaba	0	1	1	0	7
aNe-taba$$$p2$s0	aNetaba	0	0	0	1	0
	aNtaba	1	0	1	0	7
aNe-ttaba$$$p2$s1	aNettaba	1	0	0	1	5
	aNttaba	0	1	1	0	12
aNe-saba$$$p2$s2	aNesaba	0	0	0	1	0
	aNsaba	1	0	1	0	6
aNe-tsaba$$$p2$s3	aNetsaba	1	0	0	1	4
	aNtsaba	0	1	1	0	11
aNe-naba$$$p2$s4	aNenaba	0	0	0	1	0
	aNnaba	1	0	1	0	5
aNe-tnaba$$$p2$s5	aNetnaba	1	0	0	1	3
	aNtnaba	0	1	1	0	10
aNe-laba$$$p2$s6	aNelaba	0	0	0	1	0
	aNlaba	1	0	1	0	4
aNe-tlaba$$$p2$s7	aNetlaba	1	0	0	1	2
	aNtlaba	0	1	1	0	9
aNe-raba$$$p2$s8	aNeraba	0	0	0	1	0
	aNraba	1	0	1	0	3
aNe-traba$$$p2$s9	aNetraba	1	0	0	1	1
	aNtraba	0	1	1	0	8
aNe-vaba$$$p2$s10	aNevaba	0	0	0	1	0
	aNvaba	1	0	1	0	2
aNe-tvaba$$$p2$s11	aNetvaba	1	0	0	1	0
	aNtvaba	0	1	1	0	7
aNe-staba$$$p2$s12	aNestaba	1	0	0	1	6
	aNstaba	0	1	1	0	12
aNe-ssaba$$$p2$s13	aNessaba	1	0	0	1	5
	aNssaba	0	1	1	0	11
aNe-snaba$$$p2$s14	aNesnaba	1	0	0	1	4
	aNsnaba	0	1	1	0	10
aNe-slaba$$$p2$s15	aNeslaba	1	0	0	1	3
	aNslaba	0	1	1	0	9
aNe-sraba$$$p2$s16	aNesraba	1	0	0	1	2
	aNsraba	0	1	1	0	8
aNe-svaba$$$p2$s17	aNesvaba	1	0	0	1	1
	aNsvaba	0	1	1	0	7
aNe-ntaba$$$p2$s18	aNentaba	1	0	0	1	7
	aNntaba	0	1	1	0	12
aNe-nsaba$$$p2$s19	aNensaba	1	0	0	1	6
	aNnsaba	0	1	1	0	11
aNe-nnaba$$$p2$s20	aNennaba	1	0	0	1	5
	aNnnaba	0	1	1	0	10
aNe-nlaba$$$p2$s21	aNenlaba	1	0	0	1	4
	aNnlaba	0	1	1	0	9
aNe-nraba$$$p2$s22	aNenraba	1	0	0	1	3
	aNnraba	0	1	1	0	8
aNe-nvaba$$$p2$s23	aNenvaba	1	0	0	1	2
	aNnvaba	0	1	1	0	7
aNe-ltaba$$$p2$s24	aNeltaba	1	0	0	1	8
	aNltaba	0	1	1	0	12
aNe-lsaba$$$p2$s25	aNelsaba	1	0	0	1	7
	aNlsaba	0	1	1	0	11
aNe-lnaba$$$p2$s26	aNelnaba	1	0	0	1	6
	aNlnaba	0	1	1	0	10
aNe-llaba$$$p2$s27	aNellaba	1	0	0	1	5
	aNllaba	0	1	1	0	9
aNe-lraba$$$p2$s28	aNelraba	1	0	0	1	4
	aNlraba	0	1	1	0	8
aNe-lvaba$$$p2$s29	aNelvaba	1	0	0	1	3
	aNlvaba	0	1	1	0	7
aNe-rtaba$$$p2$s30	aNertaba	1	0	0	1	9
	aNrtaba	0	1	1	0	12
aNe-rsaba$$$p2$s31	aNersaba	1	0	0	1	8
	aNrsaba	0	1	1	0	11
aNe-rnaba$$$p2$s32	aNernaba	1	0	0	1	7
	aNrnaba	0	1	1	0	10
aNe-rlaba$$$p2$s33	aNerlaba	1	0	0	1	6
	aNrlaba	0	1	1	0	9
aNe-rraba$$$p2$s34	aNerraba	1	0	0	1	5
	aNrraba	0	1	1	0	8
aNe-rvaba$$$p2$s35	aNervaba	1	0	0	1	4
	aNrvaba	0	1	1	0	7
aNe-vtaba$$$p2$s36	aNevtaba	1	0	0	1	10
	aNvtaba	0	1	1	0	12
aNe-vsaba$$$p2$s37	aNevsaba	1	0	0	1	9
	aNvsaba	0	1	1	0	11
aNe-vnaba$$$p2$s38	aNevnaba	1	0	0	1	8
	aNvnaba	0	1	1	0	10
aNe-vlaba$$$p2$s39	aNevlaba	1	0	0	1	7
	aNvlaba	0	1	1	0	9
aNe-vraba$$$p2$s40	aNevraba	1	0	0	1	6
	aNvraba	0	1	1	0	8
aNe-vvaba$$$p2$s41	aNevvaba	1	0	0	1	5
	aNvvaba	0	1	1	0	7
